Core Covid-19 Stats for Denmark
…
Where the Dashboard data is stored in ISO8859-1 format, the core data is already in UTF-8. So they are way easier to read. We can just point tidyverse’s readr package directly to the data at hand. Start by setting up a core path

path <- "./data/core"

Case Estimation of Rt

Read in the Rt case estimation data

rt_cases_path <- sprintf("%s/Rt_cases_%s.csv", path, rt_date)
rt_cases <- readr::read_csv2(rt_cases_path)
rt_cases

## # A tibble: 668 × 4
##    SampleDate estimate uncertainty_lower uncertainty_upper
##    <date>        <dbl>             <dbl>             <dbl>
##  1 2020-03-26      0.9               0.6               1.1
##  2 2020-03-27      0.9               0.6               1.1
##  3 2020-03-28      0.8               0.6               1  
##  4 2020-03-29      0.8               0.6               1  
##  5 2020-03-30      0.8               0.6               1  
##  6 2020-03-31      0.8               0.6               1  
##  7 2020-04-01      0.8               0.6               1  
##  8 2020-04-02      0.8               0.6               0.9
##  9 2020-04-03      0.8               0.6               1  
## 10 2020-04-04      0.8               0.6               1  
## # … with 658 more rows

Municipality cases and tests as a time series

This data is easily read:

m_cases_timeseries_path <- sprintf("%s/Municipality_cases_time_series.csv", path)
m_cases_timeseries <- readr::read_csv2(m_cases_timeseries_path)
m_cases_timeseries

## # A tibble: 707 × 101
##    SampleDate Roskilde Copenhagen Aarhus Frederiksberg Kalundborg Middelfart
##    <date>        <dbl>      <dbl>  <dbl>         <dbl>      <dbl>      <dbl>
##  1 2020-02-26        1          0      0             0          0          0
##  2 2020-02-27        0          1      0             0          0          0
##  3 2020-02-28        0          0      1             0          0          0
##  4 2020-03-01        0          1      0             0          0          0
##  5 2020-03-02        0          1      0             1          1          1
##  6 2020-03-03        0          4      0             0          0          0
##  7 2020-03-04        0          1      0             0          0          0
##  8 2020-03-05        0          2      0             2          0          0
##  9 2020-03-06        0          0      0             0          0          0
## 10 2020-03-07        0          1      1             1          0          0
## # … with 697 more rows, and 94 more variables: Gentofte <dbl>, Solrød <dbl>,
## #   Allerød <dbl>, Dragør <dbl>, Helsingør <dbl>, Hillerød <dbl>,
## #   Rudersdal <dbl>, Næstved <dbl>, Aalborg <dbl>, Vallensbæk <dbl>,
## #   Esbjerg <dbl>, Favrskov <dbl>, Frederikssund <dbl>, Furesø <dbl>,
## #   Greve <dbl>, Holbæk <dbl>, Kolding <dbl>, Odense <dbl>, Silkeborg <dbl>,
## #   Skanderborg <dbl>, Vejle <dbl>, Aabenraa <dbl>, Ballerup <dbl>,
## #   Egedal <dbl>, Faxe <dbl>, Fredericia <dbl>, Faaborg-Midtfyn <dbl>, …

However, as we see, the data is messy and not tidy. To make the data set tidy, we want to bring it on essentially 3rd normal form:

m_cases_timeseries <- m_cases_timeseries %>%
  pivot_longer(cols = -c(`SampleDate`), names_to="Municipality", values_to="Cases") %>%
  rename(date = `SampleDate`)

m_cases_timeseries

## # A tibble: 70,700 × 3
##    date       Municipality  Cases
##    <date>     <chr>         <dbl>
##  1 2020-02-26 Roskilde          1
##  2 2020-02-26 Copenhagen        0
##  3 2020-02-26 Aarhus            0
##  4 2020-02-26 Frederiksberg     0
##  5 2020-02-26 Kalundborg        0
##  6 2020-02-26 Middelfart        0
##  7 2020-02-26 Gentofte          0
##  8 2020-02-26 Solrød            0
##  9 2020-02-26 Allerød           0
## 10 2020-02-26 Dragør            0
## # … with 70,690 more rows
We use the same strategy for the tests:

m_tested_timeseries_path <- sprintf("%s/Municipality_tested_persons_time_series.csv", path)
m_tested_timeseries <- readr::read_csv2(m_tested_timeseries_path)
m_tested_timeseries <- m_tested_timeseries %>%
  pivot_longer(cols = -c(`PrDate_adjusted`), names_to="Municipality", values_to="Tested") %>%
  rename(date = `PrDate_adjusted`)

Since these two tibbles are storing the same data, we can join them:

municipality <- m_cases_timeseries %>% left_join(m_tested_timeseries, by = c("date", "Municipality"))
municipality <- municipality %>% mutate(Municipality = factor(Municipality))
municipality

## # A tibble: 70,700 × 4
##    date       Municipality  Cases Tested
##    <date>     <fct>         <dbl>  <dbl>
##  1 2020-02-26 Roskilde          1      3
##  2 2020-02-26 Copenhagen        0      4
##  3 2020-02-26 Aarhus            0      2
##  4 2020-02-26 Frederiksberg     0      1
##  5 2020-02-26 Kalundborg        0      0
##  6 2020-02-26 Middelfart        0      0
##  7 2020-02-26 Gentofte          0      0
##  8 2020-02-26 Solrød            0      0
##  9 2020-02-26 Allerød           0      0
## 10 2020-02-26 Dragør            0      0
## # … with 70,690 more rows
…
