Covid-19 Stats for Denmark
…
We can read this file via our function. It will return a so-called tibble which is a table, or data frame, of the data in the file. We also provide initial types for each of the columns. In CSV, data is untyped. We would like to add type information to columns because it simplifies our later plotting. Many tools know how to handle data by its type, so we designate things up front.

data <- read_data(file, col_types=cols('Region' = col_factor(),
                                       'Prøvetagningsdato' = col_date(),
                                       'Køn' = col_factor(),
                                       'Bekræftede tilfælde' = col_double(),
                                       'Døde' = col_double(),
                                       'Indlæggelser' = col_double()
                                      ))

## ℹ Using "','" as decimal and "'.'" as grouping mark. Use `read_delim()` for more control.

data

## # A tibble: 6,506 × 9
##    Region      Prøvetagningsdato Køn   `Bekræftede tilfælde`  Døde Indlæggelser
##    <fct>       <date>            <fct>                 <dbl> <dbl>        <dbl>
##  1 Sjælland    2020-02-26        M                         1     0            0
##  2 Hovedstaden 2020-02-27        M                         1     0            0
##  3 Midtjylland 2020-02-28        M                         1     0            0
##  4 Hovedstaden 2020-03-01        M                         1     0            1
##  5 Hovedstaden 2020-03-02        M                         2     0            1
##  6 Sjælland    2020-03-02        M                         1     0            0
##  7 Syddanmark  2020-03-02        M                         1     0            0
##  8 Hovedstaden 2020-03-03        F                         1     0            0
##  9 Hovedstaden 2020-03-03        M                         3     0            1
## 10 Hovedstaden 2020-03-04        M                         2     0            0
## # … with 6,496 more rows, and 3 more variables: Kummuleret antal døde <dbl>,
## #   Kummuleret antal bekræftede tilfælde <dbl>,
## #   Kummuleret antal indlæggelser <dbl>
…
And while we are here, lets also limit ourselves to the columns we are interested in. There are some cumulative columns in the dataset, but we are not going to be interested in those. So we select the columns we care about.

data <- data %>% rename(region = 'Region',
                        date = 'Prøvetagningsdato',
                        gender = 'Køn', # This might be wrong, because it could also be 'sex'. However, we are going to aggregate it
                        cases = 'Bekræftede tilfælde',
                        deaths = 'Døde',
                        hospitalizations = 'Indlæggelser')

# Cut the cumulative columns away
data <- data %>% select(region, date, gender, cases, deaths, hospitalizations)
data

## # A tibble: 6,506 × 6
##    region      date       gender cases deaths hospitalizations
##    <fct>       <date>     <fct>  <dbl>  <dbl>            <dbl>
##  1 Sjælland    2020-02-26 M          1      0                0
##  2 Hovedstaden 2020-02-27 M          1      0                0
##  3 Midtjylland 2020-02-28 M          1      0                0
##  4 Hovedstaden 2020-03-01 M          1      0                1
##  5 Hovedstaden 2020-03-02 M          2      0                1
##  6 Sjælland    2020-03-02 M          1      0                0
##  7 Syddanmark  2020-03-02 M          1      0                0
##  8 Hovedstaden 2020-03-03 F          1      0                0
##  9 Hovedstaden 2020-03-03 M          3      0                1
## 10 Hovedstaden 2020-03-04 M          2      0                0
## # … with 6,496 more rows
…
The hi-end of that cutoff, we set to two days before the maximal date in our data set

hi_cutoff <- max(data$date) - days(2)

Rationale: when you have a reported number in the news, it’s generally a number from the cumulative count. The actual date of testing is often lagging by 24h to 48h. We are interested in getting the right test-date, even if it means we have a 2 days lag. Hence, we assume that recent data are still “forming”. A typical example is that the count for the current date is very close to 0, as no tests have come in yet. In 2-3 days time, this number rises to the right value, as data is retroactively updated.

Filtering the data set is easy:

data <- data %>% filter(date >= lo_cutoff, date < hi_cutoff)

# Put this into the summary
summary <- data
summary

## # A tibble: 1,310 × 6
##    region      date       gender cases deaths hospitalizations
##    <fct>       <date>     <fct>  <dbl>  <dbl>            <dbl>
##  1 Hovedstaden 2021-09-01 F        210      0                7
##  2 Midtjylland 2021-09-01 F         65      0                0
##  3 Nordjylland 2021-09-01 F         22      0                4
##  4 Sjælland    2021-09-01 F         41      0                0
##  5 Syddanmark  2021-09-01 F         46      0                1
##  6 Hovedstaden 2021-09-01 M        184      2                8
##  7 Midtjylland 2021-09-01 M         49      0                1
##  8 Nordjylland 2021-09-01 M         16      1                2
##  9 Sjælland    2021-09-01 M         37      0                3
## 10 Syddanmark  2021-09-01 M         41      0                1
## # … with 1,300 more rows
…
